{
 "custom_fields": [
  {
   "_assign": null, 
   "_comments": null, 
   "_liked_by": null, 
   "_user_tags": null, 
   "allow_on_submit": 0, 
   "collapsible": 0, 
   "collapsible_depends_on": null, 
   "creation": "2017-05-05 18:27:12.644076", 
   "default": null, 
   "depends_on": "eval:doc.is_main_passenger==1", 
   "description": null, 
   "docstatus": 0, 
   "dt": "Customer", 
   "fieldname": "full_arabic_name", 
   "fieldtype": "Data", 
   "hidden": 0, 
   "idx": 34, 
   "ignore_user_permissions": 0, 
   "ignore_xss_filter": 0, 
   "in_filter": 0, 
   "in_list_view": 0, 
   "in_standard_filter": 0, 
   "insert_after": "section_address_clean", 
   "label": "Full Arabic Name", 
   "modified": "2017-05-05 18:27:12.644076", 
   "modified_by": "Administrator", 
   "name": "Customer-full_arabic_name", 
   "no_copy": 0, 
   "options": null, 
   "owner": "Administrator", 
   "parent": null, 
   "parentfield": null, 
   "parenttype": null, 
   "permlevel": 0, 
   "precision": "", 
   "print_hide": 0, 
   "print_hide_if_no_value": 0, 
   "print_width": null, 
   "read_only": 0, 
   "report_hide": 0, 
   "reqd": 0, 
   "search_index": 0, 
   "unique": 0, 
   "width": null
  }, 
  {
   "_assign": null, 
   "_comments": null, 
   "_liked_by": null, 
   "_user_tags": null, 
   "allow_on_submit": 0, 
   "collapsible": 0, 
   "collapsible_depends_on": null, 
   "creation": "2017-05-05 18:23:17.164223", 
   "default": null, 
   "depends_on": "eval:doc.uk_address==\"Hotel\"", 
   "description": null, 
   "docstatus": 0, 
   "dt": "Customer", 
   "fieldname": "room_number", 
   "fieldtype": "Data", 
   "hidden": 0, 
   "idx": 48, 
   "ignore_user_permissions": 0, 
   "ignore_xss_filter": 0, 
   "in_filter": 0, 
   "in_list_view": 0, 
   "in_standard_filter": 0, 
   "insert_after": "uk_hotel", 
   "label": "Room Number", 
   "modified": "2017-05-05 18:23:17.164223", 
   "modified_by": "Administrator", 
   "name": "Customer-room_number", 
   "no_copy": 0, 
   "options": null, 
   "owner": "Administrator", 
   "parent": null, 
   "parentfield": null, 
   "parenttype": null, 
   "permlevel": 0, 
   "precision": "", 
   "print_hide": 0, 
   "print_hide_if_no_value": 0, 
   "print_width": null, 
   "read_only": 0, 
   "report_hide": 0, 
   "reqd": 0, 
   "search_index": 0, 
   "unique": 0, 
   "width": null
  }, 
  {
   "_assign": null, 
   "_comments": null, 
   "_liked_by": null, 
   "_user_tags": null, 
   "allow_on_submit": 0, 
   "collapsible": 0, 
   "collapsible_depends_on": null, 
   "creation": "2017-05-05 17:22:02.180219", 
   "default": null, 
   "depends_on": "eval:doc.uk_address==\"Hotel\"", 
   "description": null, 
   "docstatus": 0, 
   "dt": "Customer", 
   "fieldname": "uk_hotel", 
   "fieldtype": "Link", 
   "hidden": 0, 
   "idx": 47, 
   "ignore_user_permissions": 0, 
   "ignore_xss_filter": 0, 
   "in_filter": 0, 
   "in_list_view": 0, 
   "in_standard_filter": 0, 
   "insert_after": "uk_postcode", 
   "label": "Hotel", 
   "modified": "2017-05-05 17:22:02.180219", 
   "modified_by": "Administrator", 
   "name": "Customer-uk_hotel", 
   "no_copy": 0, 
   "options": "Hotels", 
   "owner": "Administrator", 
   "parent": null, 
   "parentfield": null, 
   "parenttype": null, 
   "permlevel": 0, 
   "precision": "", 
   "print_hide": 0, 
   "print_hide_if_no_value": 0, 
   "print_width": null, 
   "read_only": 0, 
   "report_hide": 0, 
   "reqd": 0, 
   "search_index": 0, 
   "unique": 0, 
   "width": null
  }, 
  {
   "_assign": null, 
   "_comments": null, 
   "_liked_by": null, 
   "_user_tags": null, 
   "allow_on_submit": 0, 
   "collapsible": 0, 
   "collapsible_depends_on": null, 
   "creation": "2017-05-05 17:15:51.277893", 
   "default": null, 
   "depends_on": null, 
   "description": null, 
   "docstatus": 0, 
   "dt": "Customer", 
   "fieldname": "passport_expiry_date", 
   "fieldtype": "Date", 
   "hidden": 0, 
   "idx": 28, 
   "ignore_user_permissions": 0, 
   "ignore_xss_filter": 0, 
   "in_filter": 0, 
   "in_list_view": 0, 
   "in_standard_filter": 0, 
   "insert_after": "passport_number", 
   "label": "Passport expiry date", 
   "modified": "2017-05-05 17:15:51.277893", 
   "modified_by": "Administrator", 
   "name": "Customer-passport_expiry_date", 
   "no_copy": 0, 
   "options": null, 
   "owner": "Administrator", 
   "parent": null, 
   "parentfield": null, 
   "parenttype": null, 
   "permlevel": 0, 
   "precision": "", 
   "print_hide": 0, 
   "print_hide_if_no_value": 0, 
   "print_width": null, 
   "read_only": 0, 
   "report_hide": 0, 
   "reqd": 0, 
   "search_index": 0, 
   "unique": 0, 
   "width": null
  }, 
  {
   "_assign": null, 
   "_comments": null, 
   "_liked_by": null, 
   "_user_tags": null, 
   "allow_on_submit": 0, 
   "collapsible": 0, 
   "collapsible_depends_on": null, 
   "creation": "2017-04-22 23:10:51.354385", 
   "default": null, 
   "depends_on": "eval:doc.gov_officials==\"Yes\"", 
   "description": null, 
   "docstatus": 0, 
   "dt": "Customer", 
   "fieldname": "position", 
   "fieldtype": "Link", 
   "hidden": 0, 
   "idx": 22, 
   "ignore_user_permissions": 0, 
   "ignore_xss_filter": 0, 
   "in_filter": 0, 
   "in_list_view": 0, 
   "in_standard_filter": 0, 
   "insert_after": "gov_officials", 
   "label": "Position", 
   "modified": "2017-04-22 23:10:51.354385", 
   "modified_by": "Administrator", 
   "name": "Customer-position", 
   "no_copy": 0, 
   "options": "Positions", 
   "owner": "Administrator", 
   "parent": null, 
   "parentfield": null, 
   "parenttype": null, 
   "permlevel": 0, 
   "precision": "", 
   "print_hide": 0, 
   "print_hide_if_no_value": 0, 
   "print_width": null, 
   "read_only": 0, 
   "report_hide": 0, 
   "reqd": 0, 
   "search_index": 0, 
   "unique": 0, 
   "width": null
  }, 
  {
   "_assign": null, 
   "_comments": null, 
   "_liked_by": null, 
   "_user_tags": null, 
   "allow_on_submit": 0, 
   "collapsible": 0, 
   "collapsible_depends_on": null, 
   "creation": "2017-04-06 17:03:27.945996", 
   "default": null, 
   "depends_on": "eval:doc.is_main_passenger==1", 
   "description": null, 
   "docstatus": 0, 
   "dt": "Customer", 
   "fieldname": "section_address_clean", 
   "fieldtype": "Section Break", 
   "hidden": 0, 
   "idx": 33, 
   "ignore_user_permissions": 0, 
   "ignore_xss_filter": 0, 
   "in_filter": 0, 
   "in_list_view": 0, 
   "in_standard_filter": 0, 
   "insert_after": "is_main_passenger", 
   "label": "", 
   "modified": "2017-04-06 17:03:27.945996", 
   "modified_by": "Administrator", 
   "name": "Customer-section_address_clean", 
   "no_copy": 0, 
   "options": null, 
   "owner": "Administrator", 
   "parent": null, 
   "parentfield": null, 
   "parenttype": null, 
   "permlevel": 0, 
   "precision": "", 
   "print_hide": 0, 
   "print_hide_if_no_value": 0, 
   "print_width": null, 
   "read_only": 0, 
   "report_hide": 0, 
   "reqd": 0, 
   "search_index": 0, 
   "unique": 0, 
   "width": null
  }, 
  {
   "_assign": null, 
   "_comments": null, 
   "_liked_by": null, 
   "_user_tags": null, 
   "allow_on_submit": 0, 
   "collapsible": 0, 
   "collapsible_depends_on": null, 
   "creation": "2017-04-06 17:02:31.032720", 
   "default": null, 
   "depends_on": null, 
   "description": null, 
   "docstatus": 0, 
   "dt": "Customer", 
   "fieldname": "address_col_break", 
   "fieldtype": "Column Break", 
   "hidden": 0, 
   "idx": 42, 
   "ignore_user_permissions": 0, 
   "ignore_xss_filter": 0, 
   "in_filter": 0, 
   "in_list_view": 0, 
   "in_standard_filter": 0, 
   "insert_after": "uk_telephone", 
   "label": "", 
   "modified": "2017-04-06 17:02:31.032720", 
   "modified_by": "Administrator", 
   "name": "Customer-address_col_break", 
   "no_copy": 0, 
   "options": null, 
   "owner": "Administrator", 
   "parent": null, 
   "parentfield": null, 
   "parenttype": null, 
   "permlevel": 0, 
   "precision": "", 
   "print_hide": 0, 
   "print_hide_if_no_value": 0, 
   "print_width": null, 
   "read_only": 0, 
   "report_hide": 0, 
   "reqd": 0, 
   "search_index": 0, 
   "unique": 0, 
   "width": null
  }, 
  {
   "_assign": null, 
   "_comments": null, 
   "_liked_by": null, 
   "_user_tags": null, 
   "allow_on_submit": 0, 
   "collapsible": 0, 
   "collapsible_depends_on": null, 
   "creation": "2017-04-06 16:59:55.401509", 
   "default": null, 
   "depends_on": "eval:doc.uk_address==\"Private\"", 
   "description": null, 
   "docstatus": 0, 
   "dt": "Customer", 
   "fieldname": "uk_postcode", 
   "fieldtype": "Data", 
   "hidden": 0, 
   "idx": 46, 
   "ignore_user_permissions": 0, 
   "ignore_xss_filter": 0, 
   "in_filter": 0, 
   "in_list_view": 0, 
   "in_standard_filter": 0, 
   "insert_after": "uk_address_line_2", 
   "label": "Postcode", 
   "modified": "2017-04-06 16:59:55.401509", 
   "modified_by": "Administrator", 
   "name": "Customer-uk_postcode", 
   "no_copy": 0, 
   "options": null, 
   "owner": "Administrator", 
   "parent": null, 
   "parentfield": null, 
   "parenttype": null, 
   "permlevel": 0, 
   "precision": "", 
   "print_hide": 0, 
   "print_hide_if_no_value": 0, 
   "print_width": null, 
   "read_only": 0, 
   "report_hide": 0, 
   "reqd": 0, 
   "search_index": 0, 
   "unique": 0, 
   "width": null
  }, 
  {
   "_assign": null, 
   "_comments": null, 
   "_liked_by": null, 
   "_user_tags": null, 
   "allow_on_submit": 0, 
   "collapsible": 0, 
   "collapsible_depends_on": null, 
   "creation": "2017-04-06 16:59:55.194009", 
   "default": null, 
   "depends_on": "eval:doc.uk_address==\"Private\"", 
   "description": null, 
   "docstatus": 0, 
   "dt": "Customer", 
   "fieldname": "uk_address_line_2", 
   "fieldtype": "Data", 
   "hidden": 0, 
   "idx": 45, 
   "ignore_user_permissions": 0, 
   "ignore_xss_filter": 0, 
   "in_filter": 0, 
   "in_list_view": 0, 
   "in_standard_filter": 0, 
   "insert_after": "uk_address_line_1", 
   "label": "Address line 2", 
   "modified": "2017-04-06 16:59:55.194009", 
   "modified_by": "Administrator", 
   "name": "Customer-uk_address_line_2", 
   "no_copy": 0, 
   "options": null, 
   "owner": "Administrator", 
   "parent": null, 
   "parentfield": null, 
   "parenttype": null, 
   "permlevel": 0, 
   "precision": "", 
   "print_hide": 0, 
   "print_hide_if_no_value": 0, 
   "print_width": null, 
   "read_only": 0, 
   "report_hide": 0, 
   "reqd": 0, 
   "search_index": 0, 
   "unique": 0, 
   "width": null
  }, 
  {
   "_assign": null, 
   "_comments": null, 
   "_liked_by": null, 
   "_user_tags": null, 
   "allow_on_submit": 0, 
   "collapsible": 0, 
   "collapsible_depends_on": null, 
   "creation": "2017-04-06 16:59:54.953301", 
   "default": null, 
   "depends_on": "eval:doc.uk_address==\"Private\"", 
   "description": null, 
   "docstatus": 0, 
   "dt": "Customer", 
   "fieldname": "uk_address_line_1", 
   "fieldtype": "Data", 
   "hidden": 0, 
   "idx": 44, 
   "ignore_user_permissions": 0, 
   "ignore_xss_filter": 0, 
   "in_filter": 0, 
   "in_list_view": 0, 
   "in_standard_filter": 0, 
   "insert_after": "uk_address", 
   "label": "Address line 1", 
   "modified": "2017-04-06 16:59:54.953301", 
   "modified_by": "Administrator", 
   "name": "Customer-uk_address_line_1", 
   "no_copy": 0, 
   "options": null, 
   "owner": "Administrator", 
   "parent": null, 
   "parentfield": null, 
   "parenttype": null, 
   "permlevel": 0, 
   "precision": "", 
   "print_hide": 0, 
   "print_hide_if_no_value": 0, 
   "print_width": null, 
   "read_only": 0, 
   "report_hide": 0, 
   "reqd": 0, 
   "search_index": 0, 
   "unique": 0, 
   "width": null
  }, 
  {
   "_assign": null, 
   "_comments": null, 
   "_liked_by": null, 
   "_user_tags": null, 
   "allow_on_submit": 0, 
   "collapsible": 0, 
   "collapsible_depends_on": null, 
   "creation": "2017-04-06 16:59:54.705887", 
   "default": null, 
   "depends_on": "", 
   "description": null, 
   "docstatus": 0, 
   "dt": "Customer", 
   "fieldname": "uk_address", 
   "fieldtype": "Select", 
   "hidden": 0, 
   "idx": 43, 
   "ignore_user_permissions": 0, 
   "ignore_xss_filter": 0, 
   "in_filter": 0, 
   "in_list_view": 0, 
   "in_standard_filter": 0, 
   "insert_after": "address_col_break", 
   "label": "UK Address", 
   "modified": "2017-04-06 16:59:54.705887", 
   "modified_by": "Administrator", 
   "name": "Customer-uk_address", 
   "no_copy": 0, 
   "options": "Private\nHotel", 
   "owner": "Administrator", 
   "parent": null, 
   "parentfield": null, 
   "parenttype": null, 
   "permlevel": 0, 
   "precision": "", 
   "print_hide": 0, 
   "print_hide_if_no_value": 0, 
   "print_width": null, 
   "read_only": 0, 
   "report_hide": 0, 
   "reqd": 0, 
   "search_index": 0, 
   "unique": 0, 
   "width": null
  }, 
  {
   "_assign": null, 
   "_comments": null, 
   "_liked_by": null, 
   "_user_tags": null, 
   "allow_on_submit": 0, 
   "collapsible": 0, 
   "collapsible_depends_on": null, 
   "creation": "2017-04-06 16:53:57.338045", 
   "default": null, 
   "depends_on": "eval:doc.qatari_address==\"Gov\"", 
   "description": null, 
   "docstatus": 0, 
   "dt": "Customer", 
   "fieldname": "qatari_customer_group", 
   "fieldtype": "Link", 
   "hidden": 1, 
   "idx": 39, 
   "ignore_user_permissions": 0, 
   "ignore_xss_filter": 0, 
   "in_filter": 0, 
   "in_list_view": 0, 
   "in_standard_filter": 0, 
   "insert_after": "qatari_po_box", 
   "label": "Customer Group", 
   "modified": "2017-04-06 16:53:57.338045", 
   "modified_by": "Administrator", 
   "name": "Customer-qatari_customer_group", 
   "no_copy": 0, 
   "options": "Customer Group", 
   "owner": "Administrator", 
   "parent": null, 
   "parentfield": null, 
   "parenttype": null, 
   "permlevel": 0, 
   "precision": "", 
   "print_hide": 0, 
   "print_hide_if_no_value": 0, 
   "print_width": null, 
   "read_only": 0, 
   "report_hide": 0, 
   "reqd": 0, 
   "search_index": 0, 
   "unique": 0, 
   "width": null
  }, 
  {
   "_assign": null, 
   "_comments": null, 
   "_liked_by": null, 
   "_user_tags": null, 
   "allow_on_submit": 0, 
   "collapsible": 0, 
   "collapsible_depends_on": null, 
   "creation": "2017-04-06 16:52:24.105920", 
   "default": null, 
   "depends_on": "eval:doc.qatari_address==\"Private\"", 
   "description": null, 
   "docstatus": 0, 
   "dt": "Customer", 
   "fieldname": "qatari_po_box", 
   "fieldtype": "Data", 
   "hidden": 0, 
   "idx": 38, 
   "ignore_user_permissions": 0, 
   "ignore_xss_filter": 0, 
   "in_filter": 0, 
   "in_list_view": 0, 
   "in_standard_filter": 0, 
   "insert_after": "qatari_address_line_2", 
   "label": "PO Box", 
   "modified": "2017-04-06 16:52:24.105920", 
   "modified_by": "Administrator", 
   "name": "Customer-qatari_po_box", 
   "no_copy": 0, 
   "options": null, 
   "owner": "Administrator", 
   "parent": null, 
   "parentfield": null, 
   "parenttype": null, 
   "permlevel": 0, 
   "precision": "", 
   "print_hide": 0, 
   "print_hide_if_no_value": 0, 
   "print_width": null, 
   "read_only": 0, 
   "report_hide": 0, 
   "reqd": 0, 
   "search_index": 0, 
   "unique": 0, 
   "width": null
  }, 
  {
   "_assign": null, 
   "_comments": null, 
   "_liked_by": null, 
   "_user_tags": null, 
   "allow_on_submit": 0, 
   "collapsible": 0, 
   "collapsible_depends_on": null, 
   "creation": "2017-04-06 16:47:54.754274", 
   "default": null, 
   "depends_on": "eval:doc.qatari_address==\"Private\"", 
   "description": null, 
   "docstatus": 0, 
   "dt": "Customer", 
   "fieldname": "qatari_address_line_2", 
   "fieldtype": "Data", 
   "hidden": 0, 
   "idx": 37, 
   "ignore_user_permissions": 0, 
   "ignore_xss_filter": 0, 
   "in_filter": 0, 
   "in_list_view": 0, 
   "in_standard_filter": 0, 
   "insert_after": "qatari_address_line_1", 
   "label": "Address line 2", 
   "modified": "2017-04-06 16:47:54.754274", 
   "modified_by": "Administrator", 
   "name": "Customer-qatari_address_line_2", 
   "no_copy": 0, 
   "options": null, 
   "owner": "Administrator", 
   "parent": null, 
   "parentfield": null, 
   "parenttype": null, 
   "permlevel": 0, 
   "precision": "", 
   "print_hide": 0, 
   "print_hide_if_no_value": 0, 
   "print_width": null, 
   "read_only": 0, 
   "report_hide": 0, 
   "reqd": 0, 
   "search_index": 0, 
   "unique": 0, 
   "width": null
  }, 
  {
   "_assign": null, 
   "_comments": null, 
   "_liked_by": null, 
   "_user_tags": null, 
   "allow_on_submit": 0, 
   "collapsible": 0, 
   "collapsible_depends_on": null, 
   "creation": "2017-04-06 16:47:54.552754", 
   "default": null, 
   "depends_on": "eval:doc.qatari_address==\"Private\"", 
   "description": null, 
   "docstatus": 0, 
   "dt": "Customer", 
   "fieldname": "qatari_address_line_1", 
   "fieldtype": "Data", 
   "hidden": 0, 
   "idx": 36, 
   "ignore_user_permissions": 0, 
   "ignore_xss_filter": 0, 
   "in_filter": 0, 
   "in_list_view": 0, 
   "in_standard_filter": 0, 
   "insert_after": "qatari_address", 
   "label": "Address line 1", 
   "modified": "2017-04-06 16:47:54.552754", 
   "modified_by": "Administrator", 
   "name": "Customer-qatari_address_line_1", 
   "no_copy": 0, 
   "options": null, 
   "owner": "Administrator", 
   "parent": null, 
   "parentfield": null, 
   "parenttype": null, 
   "permlevel": 0, 
   "precision": "", 
   "print_hide": 0, 
   "print_hide_if_no_value": 0, 
   "print_width": null, 
   "read_only": 0, 
   "report_hide": 0, 
   "reqd": 0, 
   "search_index": 0, 
   "unique": 0, 
   "width": null
  }, 
  {
   "_assign": null, 
   "_comments": null, 
   "_liked_by": null, 
   "_user_tags": null, 
   "allow_on_submit": 0, 
   "collapsible": 0, 
   "collapsible_depends_on": null, 
   "creation": "2017-04-06 16:47:54.352187", 
   "default": null, 
   "depends_on": "", 
   "description": null, 
   "docstatus": 0, 
   "dt": "Customer", 
   "fieldname": "qatari_address", 
   "fieldtype": "Select", 
   "hidden": 0, 
   "idx": 35, 
   "ignore_user_permissions": 0, 
   "ignore_xss_filter": 0, 
   "in_filter": 0, 
   "in_list_view": 0, 
   "in_standard_filter": 0, 
   "insert_after": "full_arabic_name", 
   "label": "Qatari Address", 
   "modified": "2017-04-06 16:47:54.352187", 
   "modified_by": "Administrator", 
   "name": "Customer-qatari_address", 
   "no_copy": 0, 
   "options": "Gov\nPrivate", 
   "owner": "Administrator", 
   "parent": null, 
   "parentfield": null, 
   "parenttype": null, 
   "permlevel": 0, 
   "precision": "", 
   "print_hide": 0, 
   "print_hide_if_no_value": 0, 
   "print_width": null, 
   "read_only": 0, 
   "report_hide": 0, 
   "reqd": 0, 
   "search_index": 0, 
   "unique": 0, 
   "width": null
  }, 
  {
   "_assign": null, 
   "_comments": null, 
   "_liked_by": null, 
   "_user_tags": null, 
   "allow_on_submit": 0, 
   "collapsible": 0, 
   "collapsible_depends_on": null, 
   "creation": "2017-04-06 16:44:19.071203", 
   "default": "0", 
   "depends_on": null, 
   "description": null, 
   "docstatus": 0, 
   "dt": "Customer", 
   "fieldname": "is_main_passenger", 
   "fieldtype": "Check", 
   "hidden": 0, 
   "idx": 32, 
   "ignore_user_permissions": 0, 
   "ignore_xss_filter": 0, 
   "in_filter": 0, 
   "in_list_view": 0, 
   "in_standard_filter": 0, 
   "insert_after": "customer_address_section", 
   "label": "Is Main Passenger?", 
   "modified": "2017-04-06 16:44:19.071203", 
   "modified_by": "Administrator", 
   "name": "Customer-is_main_passenger", 
   "no_copy": 0, 
   "options": "1\n0", 
   "owner": "Administrator", 
   "parent": null, 
   "parentfield": null, 
   "parenttype": null, 
   "permlevel": 0, 
   "precision": "", 
   "print_hide": 0, 
   "print_hide_if_no_value": 0, 
   "print_width": null, 
   "read_only": 0, 
   "report_hide": 0, 
   "reqd": 0, 
   "search_index": 0, 
   "unique": 0, 
   "width": null
  }, 
  {
   "_assign": null, 
   "_comments": null, 
   "_liked_by": null, 
   "_user_tags": null, 
   "allow_on_submit": 0, 
   "collapsible": 0, 
   "collapsible_depends_on": null, 
   "creation": "2017-04-06 16:44:18.891519", 
   "default": null, 
   "depends_on": null, 
   "description": null, 
   "docstatus": 0, 
   "dt": "Customer", 
   "fieldname": "customer_address_section", 
   "fieldtype": "Section Break", 
   "hidden": 0, 
   "idx": 30, 
   "ignore_user_permissions": 0, 
   "ignore_xss_filter": 0, 
   "in_filter": 0, 
   "in_list_view": 0, 
   "in_standard_filter": 0, 
   "insert_after": "passport_place_of_issue", 
   "label": "Customer address section", 
   "modified": "2017-04-06 16:44:18.891519", 
   "modified_by": "Administrator", 
   "name": "Customer-customer_address_section", 
   "no_copy": 0, 
   "options": null, 
   "owner": "Administrator", 
   "parent": null, 
   "parentfield": null, 
   "parenttype": null, 
   "permlevel": 0, 
   "precision": "", 
   "print_hide": 0, 
   "print_hide_if_no_value": 0, 
   "print_width": null, 
   "read_only": 0, 
   "report_hide": 0, 
   "reqd": 0, 
   "search_index": 0, 
   "unique": 0, 
   "width": null
  }, 
  {
   "_assign": null, 
   "_comments": null, 
   "_liked_by": null, 
   "_user_tags": null, 
   "allow_on_submit": 0, 
   "collapsible": 0, 
   "collapsible_depends_on": null, 
   "creation": "2017-04-03 22:18:31.881616", 
   "default": "No", 
   "depends_on": null, 
   "description": null, 
   "docstatus": 0, 
   "dt": "Customer", 
   "fieldname": "gov_officials", 
   "fieldtype": "Select", 
   "hidden": 0, 
   "idx": 21, 
   "ignore_user_permissions": 0, 
   "ignore_xss_filter": 0, 
   "in_filter": 0, 
   "in_list_view": 0, 
   "in_standard_filter": 0, 
   "insert_after": "customer_email", 
   "label": "Gov Officials", 
   "modified": "2017-04-03 22:18:31.881616", 
   "modified_by": "customvivvo@gmail.com", 
   "name": "Customer-gov_officials", 
   "no_copy": 0, 
   "options": "Yes\nNo", 
   "owner": "customvivvo@gmail.com", 
   "parent": null, 
   "parentfield": null, 
   "parenttype": null, 
   "permlevel": 0, 
   "precision": "", 
   "print_hide": 0, 
   "print_hide_if_no_value": 0, 
   "print_width": null, 
   "read_only": 0, 
   "report_hide": 0, 
   "reqd": 0, 
   "search_index": 0, 
   "unique": 0, 
   "width": null
  }, 
  {
   "_assign": null, 
   "_comments": null, 
   "_liked_by": null, 
   "_user_tags": null, 
   "allow_on_submit": 0, 
   "collapsible": 0, 
   "collapsible_depends_on": null, 
   "creation": "2017-04-03 21:49:46.128480", 
   "default": null, 
   "depends_on": null, 
   "description": null, 
   "docstatus": 0, 
   "dt": "Customer", 
   "fieldname": "nationality", 
   "fieldtype": "Link", 
   "hidden": 0, 
   "idx": 26, 
   "ignore_user_permissions": 0, 
   "ignore_xss_filter": 0, 
   "in_filter": 0, 
   "in_list_view": 0, 
   "in_standard_filter": 0, 
   "insert_after": "gender", 
   "label": "Nationality", 
   "modified": "2017-04-03 21:49:46.128480", 
   "modified_by": "customvivvo@gmail.com", 
   "name": "Customer-nationality", 
   "no_copy": 0, 
   "options": "Passenger Nationality", 
   "owner": "customvivvo@gmail.com", 
   "parent": null, 
   "parentfield": null, 
   "parenttype": null, 
   "permlevel": 0, 
   "precision": "", 
   "print_hide": 0, 
   "print_hide_if_no_value": 0, 
   "print_width": null, 
   "read_only": 0, 
   "report_hide": 0, 
   "reqd": 0, 
   "search_index": 0, 
   "unique": 0, 
   "width": null
  }, 
  {
   "_assign": null, 
   "_comments": null, 
   "_liked_by": null, 
   "_user_tags": null, 
   "allow_on_submit": 0, 
   "collapsible": 0, 
   "collapsible_depends_on": null, 
   "creation": "2017-04-03 20:47:28.140346", 
   "default": null, 
   "depends_on": null, 
   "description": null, 
   "docstatus": 0, 
   "dt": "Customer", 
   "fieldname": "passenger_attachments", 
   "fieldtype": "Table", 
   "hidden": 0, 
   "idx": 50, 
   "ignore_user_permissions": 0, 
   "ignore_xss_filter": 0, 
   "in_filter": 0, 
   "in_list_view": 0, 
   "in_standard_filter": 0, 
   "insert_after": "customer_attachment", 
   "label": "Customer Attachments", 
   "modified": "2017-04-03 20:47:28.140346", 
   "modified_by": "customvivvo@gmail.com", 
   "name": "Customer-passenger_attachments", 
   "no_copy": 0, 
   "options": "Passenger Attachments", 
   "owner": "customvivvo@gmail.com", 
   "parent": null, 
   "parentfield": null, 
   "parenttype": null, 
   "permlevel": 0, 
   "precision": "", 
   "print_hide": 0, 
   "print_hide_if_no_value": 0, 
   "print_width": null, 
   "read_only": 0, 
   "report_hide": 0, 
   "reqd": 0, 
   "search_index": 0, 
   "unique": 0, 
   "width": null
  }, 
  {
   "_assign": null, 
   "_comments": null, 
   "_liked_by": null, 
   "_user_tags": null, 
   "allow_on_submit": 0, 
   "collapsible": 0, 
   "collapsible_depends_on": null, 
   "creation": "2017-04-03 20:45:46.878466", 
   "default": null, 
   "depends_on": null, 
   "description": null, 
   "docstatus": 0, 
   "dt": "Customer", 
   "fieldname": "customer_attachment", 
   "fieldtype": "Section Break", 
   "hidden": 0, 
   "idx": 49, 
   "ignore_user_permissions": 0, 
   "ignore_xss_filter": 0, 
   "in_filter": 0, 
   "in_list_view": 0, 
   "in_standard_filter": 0, 
   "insert_after": "room_number", 
   "label": "Customer Attachments", 
   "modified": "2017-04-03 20:45:46.878466", 
   "modified_by": "customvivvo@gmail.com", 
   "name": "Customer-customer_attachment", 
   "no_copy": 0, 
   "options": null, 
   "owner": "customvivvo@gmail.com", 
   "parent": null, 
   "parentfield": null, 
   "parenttype": null, 
   "permlevel": 0, 
   "precision": "", 
   "print_hide": 0, 
   "print_hide_if_no_value": 0, 
   "print_width": null, 
   "read_only": 0, 
   "report_hide": 0, 
   "reqd": 0, 
   "search_index": 0, 
   "unique": 0, 
   "width": null
  }, 
  {
   "_assign": null, 
   "_comments": null, 
   "_liked_by": null, 
   "_user_tags": null, 
   "allow_on_submit": 0, 
   "collapsible": 0, 
   "collapsible_depends_on": null, 
   "creation": "2017-04-03 20:41:55.053589", 
   "default": null, 
   "depends_on": null, 
   "description": null, 
   "docstatus": 0, 
   "dt": "Customer", 
   "fieldname": "customer_email", 
   "fieldtype": "Data", 
   "hidden": 0, 
   "idx": 20, 
   "ignore_user_permissions": 0, 
   "ignore_xss_filter": 0, 
   "in_filter": 0, 
   "in_list_view": 0, 
   "in_standard_filter": 0, 
   "insert_after": "last_name", 
   "label": "Email", 
   "modified": "2017-04-03 20:41:55.053589", 
   "modified_by": "customvivvo@gmail.com", 
   "name": "Customer-customer_email", 
   "no_copy": 0, 
   "options": null, 
   "owner": "customvivvo@gmail.com", 
   "parent": null, 
   "parentfield": null, 
   "parenttype": null, 
   "permlevel": 0, 
   "precision": "", 
   "print_hide": 0, 
   "print_hide_if_no_value": 0, 
   "print_width": null, 
   "read_only": 0, 
   "report_hide": 0, 
   "reqd": 0, 
   "search_index": 0, 
   "unique": 0, 
   "width": null
  }, 
  {
   "_assign": null, 
   "_comments": null, 
   "_liked_by": null, 
   "_user_tags": null, 
   "allow_on_submit": 0, 
   "collapsible": 0, 
   "collapsible_depends_on": null, 
   "creation": "2017-04-03 20:39:37.113274", 
   "default": null, 
   "depends_on": null, 
   "description": null, 
   "docstatus": 0, 
   "dt": "Customer", 
   "fieldname": "customcol2", 
   "fieldtype": "Column Break", 
   "hidden": 0, 
   "idx": 23, 
   "ignore_user_permissions": 0, 
   "ignore_xss_filter": 0, 
   "in_filter": 0, 
   "in_list_view": 0, 
   "in_standard_filter": 0, 
   "insert_after": "position", 
   "label": "", 
   "modified": "2017-04-03 20:39:37.113274", 
   "modified_by": "customvivvo@gmail.com", 
   "name": "Customer-customcol2", 
   "no_copy": 0, 
   "options": null, 
   "owner": "customvivvo@gmail.com", 
   "parent": null, 
   "parentfield": null, 
   "parenttype": null, 
   "permlevel": 0, 
   "precision": "", 
   "print_hide": 0, 
   "print_hide_if_no_value": 0, 
   "print_width": null, 
   "read_only": 0, 
   "report_hide": 0, 
   "reqd": 0, 
   "search_index": 0, 
   "unique": 0, 
   "width": null
  }, 
  {
   "_assign": null, 
   "_comments": null, 
   "_liked_by": null, 
   "_user_tags": null, 
   "allow_on_submit": 0, 
   "collapsible": 0, 
   "collapsible_depends_on": null, 
   "creation": "2017-04-03 20:39:36.895608", 
   "default": null, 
   "depends_on": null, 
   "description": null, 
   "docstatus": 0, 
   "dt": "Customer", 
   "fieldname": "customcol1", 
   "fieldtype": "Column Break", 
   "hidden": 0, 
   "idx": 14, 
   "ignore_user_permissions": 0, 
   "ignore_xss_filter": 0, 
   "in_filter": 0, 
   "in_list_view": 0, 
   "in_standard_filter": 0, 
   "insert_after": "basic_information", 
   "label": "", 
   "modified": "2017-04-03 20:39:36.895608", 
   "modified_by": "customvivvo@gmail.com", 
   "name": "Customer-customcol1", 
   "no_copy": 0, 
   "options": null, 
   "owner": "customvivvo@gmail.com", 
   "parent": null, 
   "parentfield": null, 
   "parenttype": null, 
   "permlevel": 0, 
   "precision": "", 
   "print_hide": 0, 
   "print_hide_if_no_value": 0, 
   "print_width": null, 
   "read_only": 0, 
   "report_hide": 0, 
   "reqd": 0, 
   "search_index": 0, 
   "unique": 0, 
   "width": null
  }, 
  {
   "_assign": null, 
   "_comments": null, 
   "_liked_by": null, 
   "_user_tags": null, 
   "allow_on_submit": 0, 
   "collapsible": 0, 
   "collapsible_depends_on": null, 
   "creation": "2017-04-03 20:37:32.648871", 
   "default": "0044", 
   "depends_on": null, 
   "description": null, 
   "docstatus": 0, 
   "dt": "Customer", 
   "fieldname": "uk_telephone", 
   "fieldtype": "Data", 
   "hidden": 0, 
   "idx": 41, 
   "ignore_user_permissions": 0, 
   "ignore_xss_filter": 0, 
   "in_filter": 0, 
   "in_list_view": 0, 
   "in_standard_filter": 0, 
   "insert_after": "qatari_tel", 
   "label": "UK Telephone", 
   "modified": "2017-04-03 20:37:32.648871", 
   "modified_by": "customvivvo@gmail.com", 
   "name": "Customer-uk_telephone", 
   "no_copy": 0, 
   "options": null, 
   "owner": "customvivvo@gmail.com", 
   "parent": null, 
   "parentfield": null, 
   "parenttype": null, 
   "permlevel": 0, 
   "precision": "", 
   "print_hide": 0, 
   "print_hide_if_no_value": 0, 
   "print_width": null, 
   "read_only": 0, 
   "report_hide": 0, 
   "reqd": 0, 
   "search_index": 0, 
   "unique": 0, 
   "width": null
  }, 
  {
   "_assign": null, 
   "_comments": null, 
   "_liked_by": null, 
   "_user_tags": null, 
   "allow_on_submit": 0, 
   "collapsible": 0, 
   "collapsible_depends_on": null, 
   "creation": "2017-04-03 20:37:32.499547", 
   "default": "00974", 
   "depends_on": null, 
   "description": null, 
   "docstatus": 0, 
   "dt": "Customer", 
   "fieldname": "qatari_tel", 
   "fieldtype": "Data", 
   "hidden": 0, 
   "idx": 40, 
   "ignore_user_permissions": 0, 
   "ignore_xss_filter": 0, 
   "in_filter": 0, 
   "in_list_view": 0, 
   "in_standard_filter": 0, 
   "insert_after": "qatari_customer_group", 
   "label": "Qatari Tel", 
   "modified": "2017-04-03 20:37:32.499547", 
   "modified_by": "customvivvo@gmail.com", 
   "name": "Customer-qatari_tel", 
   "no_copy": 0, 
   "options": null, 
   "owner": "customvivvo@gmail.com", 
   "parent": null, 
   "parentfield": null, 
   "parenttype": null, 
   "permlevel": 0, 
   "precision": "", 
   "print_hide": 0, 
   "print_hide_if_no_value": 0, 
   "print_width": null, 
   "read_only": 0, 
   "report_hide": 0, 
   "reqd": 0, 
   "search_index": 0, 
   "unique": 0, 
   "width": null
  }, 
  {
   "_assign": null, 
   "_comments": null, 
   "_liked_by": null, 
   "_user_tags": null, 
   "allow_on_submit": 0, 
   "collapsible": 0, 
   "collapsible_depends_on": null, 
   "creation": "2017-04-03 20:37:32.354714", 
   "default": null, 
   "depends_on": null, 
   "description": null, 
   "docstatus": 0, 
   "dt": "Customer", 
   "fieldname": "passport_place_of_issue", 
   "fieldtype": "Link", 
   "hidden": 0, 
   "idx": 29, 
   "ignore_user_permissions": 0, 
   "ignore_xss_filter": 0, 
   "in_filter": 0, 
   "in_list_view": 0, 
   "in_standard_filter": 0, 
   "insert_after": "passport_expiry_date", 
   "label": "Passport place of issue", 
   "modified": "2017-04-03 20:37:32.354714", 
   "modified_by": "customvivvo@gmail.com", 
   "name": "Customer-passport_place_of_issue", 
   "no_copy": 0, 
   "options": "Territory", 
   "owner": "customvivvo@gmail.com", 
   "parent": null, 
   "parentfield": null, 
   "parenttype": null, 
   "permlevel": 0, 
   "precision": "", 
   "print_hide": 0, 
   "print_hide_if_no_value": 0, 
   "print_width": null, 
   "read_only": 0, 
   "report_hide": 0, 
   "reqd": 0, 
   "search_index": 0, 
   "unique": 0, 
   "width": null
  }, 
  {
   "_assign": null, 
   "_comments": null, 
   "_liked_by": null, 
   "_user_tags": null, 
   "allow_on_submit": 0, 
   "collapsible": 0, 
   "collapsible_depends_on": null, 
   "creation": "2017-04-03 20:37:32.202044", 
   "default": null, 
   "depends_on": null, 
   "description": null, 
   "docstatus": 0, 
   "dt": "Customer", 
   "fieldname": "passport_number", 
   "fieldtype": "Data", 
   "hidden": 0, 
   "idx": 28, 
   "ignore_user_permissions": 0, 
   "ignore_xss_filter": 0, 
   "in_filter": 0, 
   "in_list_view": 0, 
   "in_standard_filter": 0, 
   "insert_after": "id_number", 
   "label": "Passport Number", 
   "modified": "2017-04-03 20:37:32.202044", 
   "modified_by": "customvivvo@gmail.com", 
   "name": "Customer-passport_number", 
   "no_copy": 0, 
   "options": null, 
   "owner": "customvivvo@gmail.com", 
   "parent": null, 
   "parentfield": null, 
   "parenttype": null, 
   "permlevel": 0, 
   "precision": "", 
   "print_hide": 0, 
   "print_hide_if_no_value": 0, 
   "print_width": null, 
   "read_only": 0, 
   "report_hide": 0, 
   "reqd": 0, 
   "search_index": 0, 
   "unique": 0, 
   "width": null
  }, 
  {
   "_assign": null, 
   "_comments": null, 
   "_liked_by": null, 
   "_user_tags": null, 
   "allow_on_submit": 0, 
   "collapsible": 0, 
   "collapsible_depends_on": null, 
   "creation": "2017-04-03 20:37:31.918489", 
   "default": null, 
   "depends_on": null, 
   "description": null, 
   "docstatus": 0, 
   "dt": "Customer", 
   "fieldname": "date_of_birth", 
   "fieldtype": "Date", 
   "hidden": 0, 
   "idx": 24, 
   "ignore_user_permissions": 0, 
   "ignore_xss_filter": 0, 
   "in_filter": 0, 
   "in_list_view": 0, 
   "in_standard_filter": 0, 
   "insert_after": "customcol2", 
   "label": "Date of Birth", 
   "modified": "2017-04-03 20:37:31.918489", 
   "modified_by": "customvivvo@gmail.com", 
   "name": "Customer-date_of_birth", 
   "no_copy": 0, 
   "options": null, 
   "owner": "customvivvo@gmail.com", 
   "parent": null, 
   "parentfield": null, 
   "parenttype": null, 
   "permlevel": 0, 
   "precision": "", 
   "print_hide": 0, 
   "print_hide_if_no_value": 0, 
   "print_width": null, 
   "read_only": 0, 
   "report_hide": 0, 
   "reqd": 0, 
   "search_index": 0, 
   "unique": 0, 
   "width": null
  }, 
  {
   "_assign": null, 
   "_comments": null, 
   "_liked_by": null, 
   "_user_tags": null, 
   "allow_on_submit": 0, 
   "collapsible": 0, 
   "collapsible_depends_on": null, 
   "creation": "2017-04-03 20:37:31.772539", 
   "default": null, 
   "depends_on": null, 
   "description": null, 
   "docstatus": 0, 
   "dt": "Customer", 
   "fieldname": "last_name", 
   "fieldtype": "Data", 
   "hidden": 0, 
   "idx": 19, 
   "ignore_user_permissions": 0, 
   "ignore_xss_filter": 0, 
   "in_filter": 0, 
   "in_list_view": 0, 
   "in_standard_filter": 0, 
   "insert_after": "middle_name", 
   "label": "Last Name", 
   "modified": "2017-04-03 20:37:31.772539", 
   "modified_by": "customvivvo@gmail.com", 
   "name": "Customer-last_name", 
   "no_copy": 0, 
   "options": null, 
   "owner": "customvivvo@gmail.com", 
   "parent": null, 
   "parentfield": null, 
   "parenttype": null, 
   "permlevel": 0, 
   "precision": "", 
   "print_hide": 0, 
   "print_hide_if_no_value": 0, 
   "print_width": null, 
   "read_only": 0, 
   "report_hide": 0, 
   "reqd": 0, 
   "search_index": 0, 
   "unique": 0, 
   "width": null
  }, 
  {
   "_assign": null, 
   "_comments": null, 
   "_liked_by": null, 
   "_user_tags": null, 
   "allow_on_submit": 0, 
   "collapsible": 0, 
   "collapsible_depends_on": null, 
   "creation": "2017-04-03 20:37:31.642795", 
   "default": null, 
   "depends_on": null, 
   "description": null, 
   "docstatus": 0, 
   "dt": "Customer", 
   "fieldname": "middle_name", 
   "fieldtype": "Data", 
   "hidden": 0, 
   "idx": 18, 
   "ignore_user_permissions": 0, 
   "ignore_xss_filter": 0, 
   "in_filter": 0, 
   "in_list_view": 0, 
   "in_standard_filter": 0, 
   "insert_after": "first_name", 
   "label": "Middle Name", 
   "modified": "2017-04-03 20:37:31.642795", 
   "modified_by": "customvivvo@gmail.com", 
   "name": "Customer-middle_name", 
   "no_copy": 0, 
   "options": null, 
   "owner": "customvivvo@gmail.com", 
   "parent": null, 
   "parentfield": null, 
   "parenttype": null, 
   "permlevel": 0, 
   "precision": "", 
   "print_hide": 0, 
   "print_hide_if_no_value": 0, 
   "print_width": null, 
   "read_only": 0, 
   "report_hide": 0, 
   "reqd": 0, 
   "search_index": 0, 
   "unique": 0, 
   "width": null
  }, 
  {
   "_assign": null, 
   "_comments": null, 
   "_liked_by": null, 
   "_user_tags": null, 
   "allow_on_submit": 0, 
   "collapsible": 0, 
   "collapsible_depends_on": null, 
   "creation": "2017-04-03 20:37:31.496949", 
   "default": null, 
   "depends_on": null, 
   "description": null, 
   "docstatus": 0, 
   "dt": "Customer", 
   "fieldname": "first_name", 
   "fieldtype": "Data", 
   "hidden": 0, 
   "idx": 17, 
   "ignore_user_permissions": 0, 
   "ignore_xss_filter": 0, 
   "in_filter": 0, 
   "in_list_view": 0, 
   "in_standard_filter": 0, 
   "insert_after": "title", 
   "label": "First Name", 
   "modified": "2017-04-03 20:37:31.496949", 
   "modified_by": "customvivvo@gmail.com", 
   "name": "Customer-first_name", 
   "no_copy": 0, 
   "options": null, 
   "owner": "customvivvo@gmail.com", 
   "parent": null, 
   "parentfield": null, 
   "parenttype": null, 
   "permlevel": 0, 
   "precision": "", 
   "print_hide": 0, 
   "print_hide_if_no_value": 0, 
   "print_width": null, 
   "read_only": 0, 
   "report_hide": 0, 
   "reqd": 0, 
   "search_index": 0, 
   "unique": 0, 
   "width": null
  }, 
  {
   "_assign": null, 
   "_comments": null, 
   "_liked_by": null, 
   "_user_tags": null, 
   "allow_on_submit": 0, 
   "collapsible": 0, 
   "collapsible_depends_on": null, 
   "creation": "2017-04-03 20:37:31.344322", 
   "default": null, 
   "depends_on": null, 
   "description": null, 
   "docstatus": 0, 
   "dt": "Customer", 
   "fieldname": "title", 
   "fieldtype": "Select", 
   "hidden": 0, 
   "idx": 16, 
   "ignore_user_permissions": 0, 
   "ignore_xss_filter": 0, 
   "in_filter": 0, 
   "in_list_view": 0, 
   "in_standard_filter": 0, 
   "insert_after": "prefix", 
   "label": "Title", 
   "modified": "2017-04-03 20:37:31.344322", 
   "modified_by": "customvivvo@gmail.com", 
   "name": "Customer-title", 
   "no_copy": 0, 
   "options": "Mr.\nMrs.\nMs.\nMiss", 
   "owner": "customvivvo@gmail.com", 
   "parent": null, 
   "parentfield": null, 
   "parenttype": null, 
   "permlevel": 0, 
   "precision": "", 
   "print_hide": 0, 
   "print_hide_if_no_value": 0, 
   "print_width": null, 
   "read_only": 0, 
   "report_hide": 0, 
   "reqd": 0, 
   "search_index": 0, 
   "unique": 0, 
   "width": null
  }, 
  {
   "_assign": null, 
   "_comments": null, 
   "_liked_by": null, 
   "_user_tags": null, 
   "allow_on_submit": 0, 
   "collapsible": 0, 
   "collapsible_depends_on": null, 
   "creation": "2017-04-03 20:37:31.188511", 
   "default": null, 
   "depends_on": null, 
   "description": null, 
   "docstatus": 0, 
   "dt": "Customer", 
   "fieldname": "prefix", 
   "fieldtype": "Select", 
   "hidden": 0, 
   "idx": 15, 
   "ignore_user_permissions": 0, 
   "ignore_xss_filter": 0, 
   "in_filter": 0, 
   "in_list_view": 0, 
   "in_standard_filter": 0, 
   "insert_after": "customcol1", 
   "label": "Prefix", 
   "modified": "2017-04-03 20:37:31.188511", 
   "modified_by": "customvivvo@gmail.com", 
   "name": "Customer-prefix", 
   "no_copy": 0, 
   "options": "\nShk\nShka", 
   "owner": "customvivvo@gmail.com", 
   "parent": null, 
   "parentfield": null, 
   "parenttype": null, 
   "permlevel": 0, 
   "precision": "", 
   "print_hide": 0, 
   "print_hide_if_no_value": 0, 
   "print_width": null, 
   "read_only": 0, 
   "report_hide": 0, 
   "reqd": 0, 
   "search_index": 0, 
   "unique": 0, 
   "width": null
  }, 
  {
   "_assign": null, 
   "_comments": null, 
   "_liked_by": null, 
   "_user_tags": null, 
   "allow_on_submit": 0, 
   "collapsible": 0, 
   "collapsible_depends_on": null, 
   "creation": "2017-04-03 20:37:30.757159", 
   "default": null, 
   "depends_on": "eval:doc.nationality==\"Qatari\"", 
   "description": null, 
   "docstatus": 0, 
   "dt": "Customer", 
   "fieldname": "id_number", 
   "fieldtype": "Data", 
   "hidden": 0, 
   "idx": 27, 
   "ignore_user_permissions": 0, 
   "ignore_xss_filter": 0, 
   "in_filter": 0, 
   "in_list_view": 0, 
   "in_standard_filter": 0, 
   "insert_after": "nationality", 
   "label": "ID Number", 
   "modified": "2017-04-03 20:37:30.757159", 
   "modified_by": "customvivvo@gmail.com", 
   "name": "Customer-id_number", 
   "no_copy": 0, 
   "options": null, 
   "owner": "customvivvo@gmail.com", 
   "parent": null, 
   "parentfield": null, 
   "parenttype": null, 
   "permlevel": 0, 
   "precision": "", 
   "print_hide": 0, 
   "print_hide_if_no_value": 0, 
   "print_width": null, 
   "read_only": 0, 
   "report_hide": 0, 
   "reqd": 0, 
   "search_index": 0, 
   "unique": 0, 
   "width": null
  }, 
  {
   "_assign": null, 
   "_comments": null, 
   "_liked_by": null, 
   "_user_tags": null, 
   "allow_on_submit": 0, 
   "collapsible": 0, 
   "collapsible_depends_on": null, 
   "creation": "2017-04-03 20:29:36.815613", 
   "default": null, 
   "depends_on": null, 
   "description": null, 
   "docstatus": 0, 
   "dt": "Customer", 
   "fieldname": "basic_information", 
   "fieldtype": "Section Break", 
   "hidden": 0, 
   "idx": 13, 
   "ignore_user_permissions": 0, 
   "ignore_xss_filter": 0, 
   "in_filter": 0, 
   "in_list_view": 0, 
   "in_standard_filter": 0, 
   "insert_after": "disabled", 
   "label": "Basic Information", 
   "modified": "2017-04-03 20:29:36.815613", 
   "modified_by": "customvivvo@gmail.com", 
   "name": "Customer-basic_information", 
   "no_copy": 0, 
   "options": null, 
   "owner": "customvivvo@gmail.com", 
   "parent": null, 
   "parentfield": null, 
   "parenttype": null, 
   "permlevel": 0, 
   "precision": "", 
   "print_hide": 0, 
   "print_hide_if_no_value": 0, 
   "print_width": null, 
   "read_only": 0, 
   "report_hide": 0, 
   "reqd": 0, 
   "search_index": 0, 
   "unique": 0, 
   "width": null
  }
 ], 
 "doctype": "Customer", 
 "property_setters": [
  {
   "_assign": null, 
   "_comments": null, 
   "_liked_by": null, 
   "_user_tags": null, 
   "creation": "2017-05-11 08:41:21.688318", 
   "default_value": null, 
   "doc_type": "Customer", 
   "docstatus": 0, 
   "doctype_or_field": "DocField", 
   "field_name": "address_contacts", 
   "idx": 0, 
   "modified": "2017-05-11 08:41:21.688318", 
   "modified_by": "Administrator", 
   "name": "Customer-address_contacts-collapsible", 
   "owner": "Administrator", 
   "parent": null, 
   "parentfield": null, 
   "parenttype": null, 
   "property": "collapsible", 
   "property_type": "Check", 
   "value": "1"
  }, 
  {
   "_assign": null, 
   "_comments": null, 
   "_liked_by": null, 
   "_user_tags": null, 
   "creation": "2017-05-11 08:41:21.602638", 
   "default_value": null, 
   "doc_type": "Customer", 
   "docstatus": 0, 
   "doctype_or_field": "DocType", 
   "field_name": null, 
   "idx": 0, 
   "modified": "2017-05-11 08:41:21.602638", 
   "modified_by": "Administrator", 
   "name": "Customer-read_only_onload", 
   "owner": "Administrator", 
   "parent": null, 
   "parentfield": null, 
   "parenttype": null, 
   "property": "read_only_onload", 
   "property_type": "Check", 
   "value": null
  }, 
  {
   "_assign": null, 
   "_comments": null, 
   "_liked_by": null, 
   "_user_tags": null, 
   "creation": "2017-05-05 17:26:56.382360", 
   "default_value": null, 
   "doc_type": "Customer", 
   "docstatus": 0, 
   "doctype_or_field": "DocField", 
   "field_name": "territory", 
   "idx": 0, 
   "modified": "2017-05-05 17:26:56.382360", 
   "modified_by": "Administrator", 
   "name": "Customer-territory-default", 
   "owner": "Administrator", 
   "parent": null, 
   "parentfield": null, 
   "parenttype": null, 
   "property": "default", 
   "property_type": "Text", 
   "value": "Qatar"
  }, 
  {
   "_assign": null, 
   "_comments": null, 
   "_liked_by": null, 
   "_user_tags": null, 
   "creation": "2017-05-05 17:26:56.375666", 
   "default_value": null, 
   "doc_type": "Customer", 
   "docstatus": 0, 
   "doctype_or_field": "DocField", 
   "field_name": "territory", 
   "idx": 0, 
   "modified": "2017-05-05 17:26:56.375666", 
   "modified_by": "Administrator", 
   "name": "Customer-territory-hidden", 
   "owner": "Administrator", 
   "parent": null, 
   "parentfield": null, 
   "parenttype": null, 
   "property": "hidden", 
   "property_type": "Check", 
   "value": "1"
  }, 
  {
   "_assign": null, 
   "_comments": null, 
   "_liked_by": null, 
   "_user_tags": null, 
   "creation": "2017-05-05 17:26:56.364933", 
   "default_value": null, 
   "doc_type": "Customer", 
   "docstatus": 0, 
   "doctype_or_field": "DocField", 
   "field_name": "territory", 
   "idx": 0, 
   "modified": "2017-05-05 17:26:56.364933", 
   "modified_by": "Administrator", 
   "name": "Customer-territory-reqd", 
   "owner": "Administrator", 
   "parent": null, 
   "parentfield": null, 
   "parenttype": null, 
   "property": "reqd", 
   "property_type": "Check", 
   "value": "0"
  }, 
  {
   "_assign": null, 
   "_comments": null, 
   "_liked_by": null, 
   "_user_tags": null, 
   "creation": "2017-05-05 17:26:56.348200", 
   "default_value": null, 
   "doc_type": "Customer", 
   "docstatus": 0, 
   "doctype_or_field": "DocField", 
   "field_name": "customer_type", 
   "idx": 0, 
   "modified": "2017-05-05 17:26:56.348200", 
   "modified_by": "Administrator", 
   "name": "Customer-customer_type-hidden", 
   "owner": "Administrator", 
   "parent": null, 
   "parentfield": null, 
   "parenttype": null, 
   "property": "hidden", 
   "property_type": "Check", 
   "value": "1"
  }, 
  {
   "_assign": null, 
   "_comments": null, 
   "_liked_by": null, 
   "_user_tags": null, 
   "creation": "2017-05-05 17:26:56.338492", 
   "default_value": null, 
   "doc_type": "Customer", 
   "docstatus": 0, 
   "doctype_or_field": "DocField", 
   "field_name": "customer_type", 
   "idx": 0, 
   "modified": "2017-05-05 17:26:56.338492", 
   "modified_by": "Administrator", 
   "name": "Customer-customer_type-reqd", 
   "owner": "Administrator", 
   "parent": null, 
   "parentfield": null, 
   "parenttype": null, 
   "property": "reqd", 
   "property_type": "Check", 
   "value": "0"
  }, 
  {
   "_assign": null, 
   "_comments": null, 
   "_liked_by": null, 
   "_user_tags": null, 
   "creation": "2017-04-22 23:00:58.584636", 
   "default_value": null, 
   "doc_type": "Customer", 
   "docstatus": 0, 
   "doctype_or_field": "DocField", 
   "field_name": "tax_id", 
   "idx": 0, 
   "modified": "2017-04-22 23:00:58.584636", 
   "modified_by": "Administrator", 
   "name": "Customer-tax_id-hidden", 
   "owner": "Administrator", 
   "parent": null, 
   "parentfield": null, 
   "parenttype": null, 
   "property": "hidden", 
   "property_type": "Check", 
   "value": "1"
  }, 
  {
   "_assign": null, 
   "_comments": null, 
   "_liked_by": null, 
   "_user_tags": null, 
   "creation": "2017-04-22 23:00:58.569151", 
   "default_value": null, 
   "doc_type": "Customer", 
   "docstatus": 0, 
   "doctype_or_field": "DocField", 
   "field_name": "lead_name", 
   "idx": 0, 
   "modified": "2017-04-22 23:00:58.569151", 
   "modified_by": "Administrator", 
   "name": "Customer-lead_name-hidden", 
   "owner": "Administrator", 
   "parent": null, 
   "parentfield": null, 
   "parenttype": null, 
   "property": "hidden", 
   "property_type": "Check", 
   "value": "1"
  }, 
  {
   "_assign": null, 
   "_comments": null, 
   "_liked_by": null, 
   "_user_tags": null, 
   "creation": "2017-04-22 22:59:53.727242", 
   "default_value": null, 
   "doc_type": "Customer", 
   "docstatus": 0, 
   "doctype_or_field": "DocField", 
   "field_name": "customer_name", 
   "idx": 0, 
   "modified": "2017-04-22 22:59:53.727242", 
   "modified_by": "Administrator", 
   "name": "Customer-customer_name-read_only", 
   "owner": "Administrator", 
   "parent": null, 
   "parentfield": null, 
   "parenttype": null, 
   "property": "read_only", 
   "property_type": "Check", 
   "value": "1"
  }, 
  {
   "_assign": null, 
   "_comments": null, 
   "_liked_by": null, 
   "_user_tags": null, 
   "creation": "2017-04-22 22:59:53.669251", 
   "default_value": null, 
   "doc_type": "Customer", 
   "docstatus": 0, 
   "doctype_or_field": "DocType", 
   "field_name": null, 
   "idx": 0, 
   "modified": "2017-04-22 22:59:53.669251", 
   "modified_by": "Administrator", 
   "name": "Customer-sort_field", 
   "owner": "Administrator", 
   "parent": null, 
   "parentfield": null, 
   "parenttype": null, 
   "property": "sort_field", 
   "property_type": "Data", 
   "value": "modified"
  }, 
  {
   "_assign": null, 
   "_comments": null, 
   "_liked_by": null, 
   "_user_tags": null, 
   "creation": "2017-04-03 21:49:46.047509", 
   "default_value": null, 
   "doc_type": "Customer", 
   "docstatus": 0, 
   "doctype_or_field": "DocField", 
   "field_name": "territory", 
   "idx": 0, 
   "modified": "2017-04-03 21:49:46.047509", 
   "modified_by": "customvivvo@gmail.com", 
   "name": "Customer-territory-label", 
   "owner": "customvivvo@gmail.com", 
   "parent": null, 
   "parentfield": null, 
   "parenttype": null, 
   "property": "label", 
   "property_type": "Data", 
   "value": "Country"
  }, 
  {
   "_assign": null, 
   "_comments": null, 
   "_liked_by": null, 
   "_user_tags": null, 
   "creation": "2017-04-03 20:30:21.516512", 
   "default_value": null, 
   "doc_type": "Customer", 
   "docstatus": 0, 
   "doctype_or_field": "DocType", 
   "field_name": null, 
   "idx": 0, 
   "modified": "2017-04-03 20:30:21.516512", 
   "modified_by": "customvivvo@gmail.com", 
   "name": "Customer-quick_entry", 
   "owner": "customvivvo@gmail.com", 
   "parent": null, 
   "parentfield": null, 
   "parenttype": null, 
   "property": "quick_entry", 
   "property_type": "Check", 
   "value": "0"
  }, 
  {
   "_assign": null, 
   "_comments": null, 
   "_liked_by": null, 
   "_user_tags": null, 
   "creation": "2017-04-03 20:01:21.517085", 
   "default_value": null, 
   "doc_type": "Customer", 
   "docstatus": 0, 
   "doctype_or_field": "DocField", 
   "field_name": "naming_series", 
   "idx": 0, 
   "modified": "2017-04-03 20:01:21.517085", 
   "modified_by": "Administrator", 
   "name": "Customer-naming_series-hidden", 
   "owner": "Administrator", 
   "parent": null, 
   "parentfield": null, 
   "parenttype": null, 
   "property": "hidden", 
   "property_type": "Check", 
   "value": "1"
  }, 
  {
   "_assign": null, 
   "_comments": null, 
   "_liked_by": null, 
   "_user_tags": null, 
   "creation": "2017-04-03 20:01:21.456357", 
   "default_value": null, 
   "doc_type": "Customer", 
   "docstatus": 0, 
   "doctype_or_field": "DocField", 
   "field_name": "naming_series", 
   "idx": 0, 
   "modified": "2017-04-03 20:01:21.456357", 
   "modified_by": "Administrator", 
   "name": "Customer-naming_series-reqd", 
   "owner": "Administrator", 
   "parent": null, 
   "parentfield": null, 
   "parenttype": null, 
   "property": "reqd", 
   "property_type": "Check", 
   "value": "0"
  }
 ], 
 "sync_on_migrate": 1
}